…
There are 8 participants that are only included in baseline, but not the
amyloid dataset. The study_id of these participants include: 14, 49, 92,
179, 268, 304, 389, 412.

``` r
# shows observations that are only in mci_amyloid dataset
anti_join(mci_amyloid, mci_baseline, by="study_id")
```

    ## # A tibble: 397 × 6
    ##    study_id baseline    time_2      time_4      time_6      time_8     
    ##       <dbl> <chr>       <chr>       <chr>       <chr>       <chr>      
    ##  1        1 0.1105487   <NA>        0.109325197 0.104756131 0.107257697
    ##  2        2 0.107481183 0.109157373 0.109457839 0.105729713 0.10661845 
    ##  3        4 0.109251358 0.108699686 0.110540386 0.107476797 0.111212209
    ##  4        6 0.112426974 0.112853415 0.11143945  0.110279277 0.114982747
    ##  5        8 0.109563372 0.109470828 <NA>        0.108742168 0.110268552
    ##  6        9 0.112101884 0.109781199 0.108832888 <NA>        <NA>       
    ##  7       10 0.1116094   0.111592149 <NA>        <NA>        0.110051296
    ##  8       11 0.109119335 0.109316496 0.1114037   0.108586573 0.108993335
    ##  9       12 0.112042298 0.114167481 0.109859682 0.106842794 0.107334106
    ## 10       15 0.111544948 <NA>        0.110798711 0.110378192 0.106742725
    ## # ℹ 387 more rows
…
